('/home/ccn/frag-x/build/client/PYZ-00.pyz',
 [('pkg_resources',
   '/usr/lib/python3.9/site-packages/pkg_resources/__init__.py',
   'PYMODULE'),
  ('packaging.markers',
   '/usr/lib/python3.9/site-packages/packaging/markers.py',
   'PYMODULE'),
  ('typing', '/usr/lib/python3.9/typing.py', 'PYMODULE'),
  ('contextlib', '/usr/lib/python3.9/contextlib.py', 'PYMODULE'),
  ('pyparsing', '/usr/lib/python3.9/site-packages/pyparsing.py', 'PYMODULE'),
  ('uuid', '/usr/lib/python3.9/uuid.py', 'PYMODULE'),
  ('hashlib', '/usr/lib/python3.9/hashlib.py', 'PYMODULE'),
  ('socket', '/usr/lib/python3.9/socket.py', 'PYMODULE'),
  ('selectors', '/usr/lib/python3.9/selectors.py', 'PYMODULE'),
  ('subprocess', '/usr/lib/python3.9/subprocess.py', 'PYMODULE'),
  ('signal', '/usr/lib/python3.9/signal.py', 'PYMODULE'),
  ('shutil', '/usr/lib/python3.9/shutil.py', 'PYMODULE'),
  ('tarfile', '/usr/lib/python3.9/tarfile.py', 'PYMODULE'),
  ('argparse', '/usr/lib/python3.9/argparse.py', 'PYMODULE'),
  ('gettext', '/usr/lib/python3.9/gettext.py', 'PYMODULE'),
  ('gzip', '/usr/lib/python3.9/gzip.py', 'PYMODULE'),
  ('_compression', '/usr/lib/python3.9/_compression.py', 'PYMODULE'),
  ('struct', '/usr/lib/python3.9/struct.py', 'PYMODULE'),
  ('lzma', '/usr/lib/python3.9/lzma.py', 'PYMODULE'),
  ('bz2', '/usr/lib/python3.9/bz2.py', 'PYMODULE'),
  ('fnmatch', '/usr/lib/python3.9/fnmatch.py', 'PYMODULE'),
  ('pdb', '/usr/lib/python3.9/pdb.py', 'PYMODULE'),
  ('getopt', '/usr/lib/python3.9/getopt.py', 'PYMODULE'),
  ('pydoc', '/usr/lib/python3.9/pydoc.py', 'PYMODULE'),
  ('webbrowser', '/usr/lib/python3.9/webbrowser.py', 'PYMODULE'),
  ('email.message', '/usr/lib/python3.9/email/message.py', 'PYMODULE'),
  ('email.policy', '/usr/lib/python3.9/email/policy.py', 'PYMODULE'),
  ('email.contentmanager',
   '/usr/lib/python3.9/email/contentmanager.py',
   'PYMODULE'),
  ('email.quoprimime', '/usr/lib/python3.9/email/quoprimime.py', 'PYMODULE'),
  ('email.headerregistry',
   '/usr/lib/python3.9/email/headerregistry.py',
   'PYMODULE'),
  ('email._header_value_parser',
   '/usr/lib/python3.9/email/_header_value_parser.py',
   'PYMODULE'),
  ('urllib', '/usr/lib/python3.9/urllib/__init__.py', 'PYMODULE'),
  ('email.iterators', '/usr/lib/python3.9/email/iterators.py', 'PYMODULE'),
  ('email.generator', '/usr/lib/python3.9/email/generator.py', 'PYMODULE'),
  ('email._encoded_words',
   '/usr/lib/python3.9/email/_encoded_words.py',
   'PYMODULE'),
  ('base64', '/usr/lib/python3.9/base64.py', 'PYMODULE'),
  ('email.charset', '/usr/lib/python3.9/email/charset.py', 'PYMODULE'),
  ('email.encoders', '/usr/lib/python3.9/email/encoders.py', 'PYMODULE'),
  ('email.base64mime', '/usr/lib/python3.9/email/base64mime.py', 'PYMODULE'),
  ('email._policybase', '/usr/lib/python3.9/email/_policybase.py', 'PYMODULE'),
  ('email.header', '/usr/lib/python3.9/email/header.py', 'PYMODULE'),
  ('email.errors', '/usr/lib/python3.9/email/errors.py', 'PYMODULE'),
  ('email.utils', '/usr/lib/python3.9/email/utils.py', 'PYMODULE'),
  ('email._parseaddr', '/usr/lib/python3.9/email/_parseaddr.py', 'PYMODULE'),
  ('calendar', '/usr/lib/python3.9/calendar.py', 'PYMODULE'),
  ('email', '/usr/lib/python3.9/email/__init__.py', 'PYMODULE'),
  ('quopri', '/usr/lib/python3.9/quopri.py', 'PYMODULE'),
  ('uu', '/usr/lib/python3.9/uu.py', 'PYMODULE'),
  ('optparse', '/usr/lib/python3.9/optparse.py', 'PYMODULE'),
  ('http.server', '/usr/lib/python3.9/http/server.py', 'PYMODULE'),
  ('http', '/usr/lib/python3.9/http/__init__.py', 'PYMODULE'),
  ('socketserver', '/usr/lib/python3.9/socketserver.py', 'PYMODULE'),
  ('mimetypes', '/usr/lib/python3.9/mimetypes.py', 'PYMODULE'),
  ('http.client', '/usr/lib/python3.9/http/client.py', 'PYMODULE'),
  ('ssl', '/usr/lib/python3.9/ssl.py', 'PYMODULE'),
  ('html', '/usr/lib/python3.9/html/__init__.py', 'PYMODULE'),
  ('html.entities', '/usr/lib/python3.9/html/entities.py', 'PYMODULE'),
  ('pydoc_data.topics', '/usr/lib/python3.9/pydoc_data/topics.py', 'PYMODULE'),
  ('pydoc_data', '/usr/lib/python3.9/pydoc_data/__init__.py', 'PYMODULE'),
  ('tty', '/usr/lib/python3.9/tty.py', 'PYMODULE'),
  ('urllib.parse', '/usr/lib/python3.9/urllib/parse.py', 'PYMODULE'),
  ('importlib.util', '/usr/lib/python3.9/importlib/util.py', 'PYMODULE'),
  ('importlib.abc', '/usr/lib/python3.9/importlib/abc.py', 'PYMODULE'),
  ('importlib._bootstrap_external',
   '/usr/lib/python3.9/importlib/_bootstrap_external.py',
   'PYMODULE'),
  ('importlib.metadata',
   '/usr/lib/python3.9/importlib/metadata.py',
   'PYMODULE'),
  ('pep517.meta',
   '/usr/lib/python3.9/site-packages/pep517/meta.py',
   'PYMODULE'),
  ('pep517.dirtools',
   '/usr/lib/python3.9/site-packages/pep517/dirtools.py',
   'PYMODULE'),
  ('pep517.wrappers',
   '/usr/lib/python3.9/site-packages/pep517/wrappers.py',
   'PYMODULE'),
  ('pep517.in_process',
   '/usr/lib/python3.9/site-packages/pep517/in_process/__init__.py',
   'PYMODULE'),
  ('importlib.resources',
   '/usr/lib/python3.9/importlib/resources.py',
   'PYMODULE'),
  ('importlib._common', '/usr/lib/python3.9/importlib/_common.py', 'PYMODULE'),
  ('pep517.compat',
   '/usr/lib/python3.9/site-packages/pep517/compat.py',
   'PYMODULE'),
  ('tomli', '/usr/lib/python3.9/site-packages/tomli/__init__.py', 'PYMODULE'),
  ('tomli._parser',
   '/usr/lib/python3.9/site-packages/tomli/_parser.py',
   'PYMODULE'),
  ('tomli._re', '/usr/lib/python3.9/site-packages/tomli/_re.py', 'PYMODULE'),
  ('toml', '/usr/lib/python3.9/site-packages/toml/__init__.py', 'PYMODULE'),
  ('toml.decoder',
   '/usr/lib/python3.9/site-packages/toml/decoder.py',
   'PYMODULE'),
  ('toml.tz', '/usr/lib/python3.9/site-packages/toml/tz.py', 'PYMODULE'),
  ('toml.encoder',
   '/usr/lib/python3.9/site-packages/toml/encoder.py',
   'PYMODULE'),
  ('numpy',
   '/home/ccn/.local/lib/python3.9/site-packages/numpy/__init__.py',
   'PYMODULE'),
  ('numpy.core._dtype_ctypes',
   '/home/ccn/.local/lib/python3.9/site-packages/numpy/core/_dtype_ctypes.py',
   'PYMODULE'),
  ('ctypes', '/usr/lib/python3.9/ctypes/__init__.py', 'PYMODULE'),
  ('ctypes._endian', '/usr/lib/python3.9/ctypes/_endian.py', 'PYMODULE'),
  ('numpy._pytesttester',
   '/home/ccn/.local/lib/python3.9/site-packages/numpy/_pytesttester.py',
   'PYMODULE'),
  ('numpy.testing',
   '/home/ccn/.local/lib/python3.9/site-packages/numpy/testing/__init__.py',
   'PYMODULE'),
  ('numpy.testing._private.nosetester',
   '/home/ccn/.local/lib/python3.9/site-packages/numpy/testing/_private/nosetester.py',
   'PYMODULE'),
  ('doctest', '/usr/lib/python3.9/doctest.py', 'PYMODULE'),
  ('difflib', '/usr/lib/python3.9/difflib.py', 'PYMODULE'),
  ('numpy.testing._private.noseclasses',
   '/home/ccn/.local/lib/python3.9/site-packages/numpy/testing/_private/noseclasses.py',
   'PYMODULE'),
  ('numpy.testing._private.decorators',
   '/home/ccn/.local/lib/python3.9/site-packages/numpy/testing/_private/decorators.py',
   'PYMODULE'),
  ('numpy.testing._private.parameterized',
   '/home/ccn/.local/lib/python3.9/site-packages/numpy/testing/_private/parameterized.py',
   'PYMODULE'),
  ('numpy.testing._private',
   '/home/ccn/.local/lib/python3.9/site-packages/numpy/testing/_private/__init__.py',
   'PYMODULE'),
  ('numpy.testing._private.utils',
   '/home/ccn/.local/lib/python3.9/site-packages/numpy/testing/_private/utils.py',
   'PYMODULE'),
  ('psutil', '/usr/lib/python3.9/site-packages/psutil/__init__.py', 'PYMODULE'),
  ('psutil._psaix',
   '/usr/lib/python3.9/site-packages/psutil/_psaix.py',
   'PYMODULE'),
  ('psutil._pssunos',
   '/usr/lib/python3.9/site-packages/psutil/_pssunos.py',
   'PYMODULE'),
  ('psutil._psbsd',
   '/usr/lib/python3.9/site-packages/psutil/_psbsd.py',
   'PYMODULE'),
  ('xml.etree.ElementTree',
   '/usr/lib/python3.9/xml/etree/ElementTree.py',
   'PYMODULE'),
  ('xml.etree.cElementTree',
   '/usr/lib/python3.9/xml/etree/cElementTree.py',
   'PYMODULE'),
  ('xml.etree.ElementInclude',
   '/usr/lib/python3.9/xml/etree/ElementInclude.py',
   'PYMODULE'),
  ('xml.parsers.expat', '/usr/lib/python3.9/xml/parsers/expat.py', 'PYMODULE'),
  ('xml.parsers', '/usr/lib/python3.9/xml/parsers/__init__.py', 'PYMODULE'),
  ('xml', '/usr/lib/python3.9/xml/__init__.py', 'PYMODULE'),
  ('xml.sax.expatreader',
   '/usr/lib/python3.9/xml/sax/expatreader.py',
   'PYMODULE'),
  ('xml.sax.saxutils', '/usr/lib/python3.9/xml/sax/saxutils.py', 'PYMODULE'),
  ('urllib.request', '/usr/lib/python3.9/urllib/request.py', 'PYMODULE'),
  ('getpass', '/usr/lib/python3.9/getpass.py', 'PYMODULE'),
  ('nturl2path', '/usr/lib/python3.9/nturl2path.py', 'PYMODULE'),
  ('ftplib', '/usr/lib/python3.9/ftplib.py', 'PYMODULE'),
  ('netrc', '/usr/lib/python3.9/netrc.py', 'PYMODULE'),
  ('http.cookiejar', '/usr/lib/python3.9/http/cookiejar.py', 'PYMODULE'),
  ('urllib.response', '/usr/lib/python3.9/urllib/response.py', 'PYMODULE'),
  ('urllib.error', '/usr/lib/python3.9/urllib/error.py', 'PYMODULE'),
  ('bisect', '/usr/lib/python3.9/bisect.py', 'PYMODULE'),
  ('xml.sax', '/usr/lib/python3.9/xml/sax/__init__.py', 'PYMODULE'),
  ('xml.sax.handler', '/usr/lib/python3.9/xml/sax/handler.py', 'PYMODULE'),
  ('xml.sax._exceptions',
   '/usr/lib/python3.9/xml/sax/_exceptions.py',
   'PYMODULE'),
  ('xml.sax.xmlreader', '/usr/lib/python3.9/xml/sax/xmlreader.py', 'PYMODULE'),
  ('xml.etree.ElementPath',
   '/usr/lib/python3.9/xml/etree/ElementPath.py',
   'PYMODULE'),
  ('xml.etree', '/usr/lib/python3.9/xml/etree/__init__.py', 'PYMODULE'),
  ('psutil._psosx',
   '/usr/lib/python3.9/site-packages/psutil/_psosx.py',
   'PYMODULE'),
  ('psutil._pswindows',
   '/usr/lib/python3.9/site-packages/psutil/_pswindows.py',
   'PYMODULE'),
  ('psutil._pslinux',
   '/usr/lib/python3.9/site-packages/psutil/_pslinux.py',
   'PYMODULE'),
  ('psutil._psposix',
   '/usr/lib/python3.9/site-packages/psutil/_psposix.py',
   'PYMODULE'),
  ('psutil._compat',
   '/usr/lib/python3.9/site-packages/psutil/_compat.py',
   'PYMODULE'),
  ('psutil._common',
   '/usr/lib/python3.9/site-packages/psutil/_common.py',
   'PYMODULE'),
  ('curses', '/usr/lib/python3.9/curses/__init__.py', 'PYMODULE'),
  ('curses.has_key', '/usr/lib/python3.9/curses/has_key.py', 'PYMODULE'),
  ('numpy.core.fromnumeric',
   '/home/ccn/.local/lib/python3.9/site-packages/numpy/core/fromnumeric.py',
   'PYMODULE'),
  ('numpy.core._methods',
   '/home/ccn/.local/lib/python3.9/site-packages/numpy/core/_methods.py',
   'PYMODULE'),
  ('numpy.lib.stride_tricks',
   '/home/ccn/.local/lib/python3.9/site-packages/numpy/lib/stride_tricks.py',
   'PYMODULE'),
  ('numpy.core.numeric',
   '/home/ccn/.local/lib/python3.9/site-packages/numpy/core/numeric.py',
   'PYMODULE'),
  ('numpy.core.arrayprint',
   '/home/ccn/.local/lib/python3.9/site-packages/numpy/core/arrayprint.py',
   'PYMODULE'),
  ('numpy.core._ufunc_config',
   '/home/ccn/.local/lib/python3.9/site-packages/numpy/core/_ufunc_config.py',
   'PYMODULE'),
  ('numpy.core.shape_base',
   '/home/ccn/.local/lib/python3.9/site-packages/numpy/core/shape_base.py',
   'PYMODULE'),
  ('numbers', '/usr/lib/python3.9/numbers.py', 'PYMODULE'),
  ('numpy.core._exceptions',
   '/home/ccn/.local/lib/python3.9/site-packages/numpy/core/_exceptions.py',
   'PYMODULE'),
  ('numpy.core._asarray',
   '/home/ccn/.local/lib/python3.9/site-packages/numpy/core/_asarray.py',
   'PYMODULE'),
  ('numpy.core.umath',
   '/home/ccn/.local/lib/python3.9/site-packages/numpy/core/umath.py',
   'PYMODULE'),
  ('numpy.core.overrides',
   '/home/ccn/.local/lib/python3.9/site-packages/numpy/core/overrides.py',
   'PYMODULE'),
  ('numpy.compat._inspect',
   '/home/ccn/.local/lib/python3.9/site-packages/numpy/compat/_inspect.py',
   'PYMODULE'),
  ('numpy.core.multiarray',
   '/home/ccn/.local/lib/python3.9/site-packages/numpy/core/multiarray.py',
   'PYMODULE'),
  ('numpy.core.numerictypes',
   '/home/ccn/.local/lib/python3.9/site-packages/numpy/core/numerictypes.py',
   'PYMODULE'),
  ('numpy.core._dtype',
   '/home/ccn/.local/lib/python3.9/site-packages/numpy/core/_dtype.py',
   'PYMODULE'),
  ('numpy.core._type_aliases',
   '/home/ccn/.local/lib/python3.9/site-packages/numpy/core/_type_aliases.py',
   'PYMODULE'),
  ('numpy.core._string_helpers',
   '/home/ccn/.local/lib/python3.9/site-packages/numpy/core/_string_helpers.py',
   'PYMODULE'),
  ('unittest.case', '/usr/lib/python3.9/unittest/case.py', 'PYMODULE'),
  ('unittest._log', '/usr/lib/python3.9/unittest/_log.py', 'PYMODULE'),
  ('unittest.util', '/usr/lib/python3.9/unittest/util.py', 'PYMODULE'),
  ('unittest.result', '/usr/lib/python3.9/unittest/result.py', 'PYMODULE'),
  ('unittest', '/usr/lib/python3.9/unittest/__init__.py', 'PYMODULE'),
  ('unittest.async_case',
   '/usr/lib/python3.9/unittest/async_case.py',
   'PYMODULE'),
  ('asyncio', '/usr/lib/python3.9/asyncio/__init__.py', 'PYMODULE'),
  ('asyncio.unix_events',
   '/usr/lib/python3.9/asyncio/unix_events.py',
   'PYMODULE'),
  ('asyncio.log', '/usr/lib/python3.9/asyncio/log.py', 'PYMODULE'),
  ('asyncio.windows_events',
   '/usr/lib/python3.9/asyncio/windows_events.py',
   'PYMODULE'),
  ('asyncio.windows_utils',
   '/usr/lib/python3.9/asyncio/windows_utils.py',
   'PYMODULE'),
  ('asyncio.selector_events',
   '/usr/lib/python3.9/asyncio/selector_events.py',
   'PYMODULE'),
  ('asyncio.proactor_events',
   '/usr/lib/python3.9/asyncio/proactor_events.py',
   'PYMODULE'),
  ('asyncio.base_subprocess',
   '/usr/lib/python3.9/asyncio/base_subprocess.py',
   'PYMODULE'),
  ('asyncio.threads', '/usr/lib/python3.9/asyncio/threads.py', 'PYMODULE'),
  ('contextvars', '/usr/lib/python3.9/contextvars.py', 'PYMODULE'),
  ('asyncio.subprocess',
   '/usr/lib/python3.9/asyncio/subprocess.py',
   'PYMODULE'),
  ('asyncio.streams', '/usr/lib/python3.9/asyncio/streams.py', 'PYMODULE'),
  ('asyncio.queues', '/usr/lib/python3.9/asyncio/queues.py', 'PYMODULE'),
  ('asyncio.runners', '/usr/lib/python3.9/asyncio/runners.py', 'PYMODULE'),
  ('asyncio.base_events',
   '/usr/lib/python3.9/asyncio/base_events.py',
   'PYMODULE'),
  ('concurrent.futures',
   '/usr/lib/python3.9/concurrent/futures/__init__.py',
   'PYMODULE'),
  ('concurrent.futures.thread',
   '/usr/lib/python3.9/concurrent/futures/thread.py',
   'PYMODULE'),
  ('concurrent.futures.process',
   '/usr/lib/python3.9/concurrent/futures/process.py',
   'PYMODULE'),
  ('multiprocessing.queues',
   '/usr/lib/python3.9/multiprocessing/queues.py',
   'PYMODULE'),
  ('multiprocessing.synchronize',
   '/usr/lib/python3.9/multiprocessing/synchronize.py',
   'PYMODULE'),
  ('multiprocessing.heap',
   '/usr/lib/python3.9/multiprocessing/heap.py',
   'PYMODULE'),
  ('multiprocessing.resource_tracker',
   '/usr/lib/python3.9/multiprocessing/resource_tracker.py',
   'PYMODULE'),
  ('multiprocessing.spawn',
   '/usr/lib/python3.9/multiprocessing/spawn.py',
   'PYMODULE'),
  ('multiprocessing.process',
   '/usr/lib/python3.9/multiprocessing/process.py',
   'PYMODULE'),
  ('multiprocessing.util',
   '/usr/lib/python3.9/multiprocessing/util.py',
   'PYMODULE'),
  ('multiprocessing.forkserver',
   '/usr/lib/python3.9/multiprocessing/forkserver.py',
   'PYMODULE'),
  ('multiprocessing.context',
   '/usr/lib/python3.9/multiprocessing/context.py',
   'PYMODULE'),
  ('multiprocessing.popen_spawn_win32',
   '/usr/lib/python3.9/multiprocessing/popen_spawn_win32.py',
   'PYMODULE'),
  ('multiprocessing.popen_forkserver',
   '/usr/lib/python3.9/multiprocessing/popen_forkserver.py',
   'PYMODULE'),
  ('multiprocessing.popen_spawn_posix',
   '/usr/lib/python3.9/multiprocessing/popen_spawn_posix.py',
   'PYMODULE'),
  ('multiprocessing.popen_fork',
   '/usr/lib/python3.9/multiprocessing/popen_fork.py',
   'PYMODULE'),
  ('multiprocessing.sharedctypes',
   '/usr/lib/python3.9/multiprocessing/sharedctypes.py',
   'PYMODULE'),
  ('multiprocessing.pool',
   '/usr/lib/python3.9/multiprocessing/pool.py',
   'PYMODULE'),
  ('multiprocessing.dummy',
   '/usr/lib/python3.9/multiprocessing/dummy/__init__.py',
   'PYMODULE'),
  ('multiprocessing.dummy.connection',
   '/usr/lib/python3.9/multiprocessing/dummy/connection.py',
   'PYMODULE'),
  ('multiprocessing.managers',
   '/usr/lib/python3.9/multiprocessing/managers.py',
   'PYMODULE'),
  ('multiprocessing.shared_memory',
   '/usr/lib/python3.9/multiprocessing/shared_memory.py',
   'PYMODULE'),
  ('secrets', '/usr/lib/python3.9/secrets.py', 'PYMODULE'),
  ('hmac', '/usr/lib/python3.9/hmac.py', 'PYMODULE'),
  ('multiprocessing.reduction',
   '/usr/lib/python3.9/multiprocessing/reduction.py',
   'PYMODULE'),
  ('multiprocessing.resource_sharer',
   '/usr/lib/python3.9/multiprocessing/resource_sharer.py',
   'PYMODULE'),
  ('multiprocessing.connection',
   '/usr/lib/python3.9/multiprocessing/connection.py',
   'PYMODULE'),
  ('xmlrpc.client', '/usr/lib/python3.9/xmlrpc/client.py', 'PYMODULE'),
  ('xmlrpc', '/usr/lib/python3.9/xmlrpc/__init__.py', 'PYMODULE'),
  ('multiprocessing',
   '/usr/lib/python3.9/multiprocessing/__init__.py',
   'PYMODULE'),
  ('concurrent.futures._base',
   '/usr/lib/python3.9/concurrent/futures/_base.py',
   'PYMODULE'),
  ('concurrent', '/usr/lib/python3.9/concurrent/__init__.py', 'PYMODULE'),
  ('asyncio.trsock', '/usr/lib/python3.9/asyncio/trsock.py', 'PYMODULE'),
  ('asyncio.staggered', '/usr/lib/python3.9/asyncio/staggered.py', 'PYMODULE'),
  ('asyncio.tasks', '/usr/lib/python3.9/asyncio/tasks.py', 'PYMODULE'),
  ('asyncio.base_tasks',
   '/usr/lib/python3.9/asyncio/base_tasks.py',
   'PYMODULE'),
  ('asyncio.locks', '/usr/lib/python3.9/asyncio/locks.py', 'PYMODULE'),
  ('asyncio.sslproto', '/usr/lib/python3.9/asyncio/sslproto.py', 'PYMODULE'),
  ('asyncio.transports',
   '/usr/lib/python3.9/asyncio/transports.py',
   'PYMODULE'),
  ('asyncio.protocols', '/usr/lib/python3.9/asyncio/protocols.py', 'PYMODULE'),
  ('asyncio.futures', '/usr/lib/python3.9/asyncio/futures.py', 'PYMODULE'),
  ('asyncio.exceptions',
   '/usr/lib/python3.9/asyncio/exceptions.py',
   'PYMODULE'),
  ('asyncio.events', '/usr/lib/python3.9/asyncio/events.py', 'PYMODULE'),
  ('asyncio.coroutines',
   '/usr/lib/python3.9/asyncio/coroutines.py',
   'PYMODULE'),
  ('asyncio.base_futures',
   '/usr/lib/python3.9/asyncio/base_futures.py',
   'PYMODULE'),
  ('asyncio.format_helpers',
   '/usr/lib/python3.9/asyncio/format_helpers.py',
   'PYMODULE'),
  ('asyncio.constants', '/usr/lib/python3.9/asyncio/constants.py', 'PYMODULE'),
  ('unittest.signals', '/usr/lib/python3.9/unittest/signals.py', 'PYMODULE'),
  ('unittest.main', '/usr/lib/python3.9/unittest/main.py', 'PYMODULE'),
  ('unittest.runner', '/usr/lib/python3.9/unittest/runner.py', 'PYMODULE'),
  ('unittest.loader', '/usr/lib/python3.9/unittest/loader.py', 'PYMODULE'),
  ('unittest.suite', '/usr/lib/python3.9/unittest/suite.py', 'PYMODULE'),
  ('numpy.matrixlib',
   '/home/ccn/.local/lib/python3.9/site-packages/numpy/matrixlib/__init__.py',
   'PYMODULE'),
  ('numpy.matrixlib.defmatrix',
   '/home/ccn/.local/lib/python3.9/site-packages/numpy/matrixlib/defmatrix.py',
   'PYMODULE'),
  ('ast', '/usr/lib/python3.9/ast.py', 'PYMODULE'),
  ('numpy.ma',
   '/home/ccn/.local/lib/python3.9/site-packages/numpy/ma/__init__.py',
   'PYMODULE'),
  ('numpy.ma.extras',
   '/home/ccn/.local/lib/python3.9/site-packages/numpy/ma/extras.py',
   'PYMODULE'),
  ('numpy.lib.index_tricks',
   '/home/ccn/.local/lib/python3.9/site-packages/numpy/lib/index_tricks.py',
   'PYMODULE'),
  ('numpy.lib.function_base',
   '/home/ccn/.local/lib/python3.9/site-packages/numpy/lib/function_base.py',
   'PYMODULE'),
  ('numpy.lib.histograms',
   '/home/ccn/.local/lib/python3.9/site-packages/numpy/lib/histograms.py',
   'PYMODULE'),
  ('numpy.lib.twodim_base',
   '/home/ccn/.local/lib/python3.9/site-packages/numpy/lib/twodim_base.py',
   'PYMODULE'),
  ('numpy.core.function_base',
   '/home/ccn/.local/lib/python3.9/site-packages/numpy/core/function_base.py',
   'PYMODULE'),
  ('numpy.ma.core',
   '/home/ccn/.local/lib/python3.9/site-packages/numpy/ma/core.py',
   'PYMODULE'),
  ('numpy.core._internal',
   '/home/ccn/.local/lib/python3.9/site-packages/numpy/core/_internal.py',
   'PYMODULE'),
  ('numpy.ctypeslib',
   '/home/ccn/.local/lib/python3.9/site-packages/numpy/ctypeslib.py',
   'PYMODULE'),
  ('numpy.random',
   '/home/ccn/.local/lib/python3.9/site-packages/numpy/random/__init__.py',
   'PYMODULE'),
  ('numpy.random._pickle',
   '/home/ccn/.local/lib/python3.9/site-packages/numpy/random/_pickle.py',
   'PYMODULE'),
  ('numpy.polynomial',
   '/home/ccn/.local/lib/python3.9/site-packages/numpy/polynomial/__init__.py',
   'PYMODULE'),
  ('numpy.polynomial._polybase',
   '/home/ccn/.local/lib/python3.9/site-packages/numpy/polynomial/_polybase.py',
   'PYMODULE'),
  ('numpy.polynomial.laguerre',
   '/home/ccn/.local/lib/python3.9/site-packages/numpy/polynomial/laguerre.py',
   'PYMODULE'),
  ('numpy.polynomial.hermite_e',
   '/home/ccn/.local/lib/python3.9/site-packages/numpy/polynomial/hermite_e.py',
   'PYMODULE'),
  ('numpy.polynomial.hermite',
   '/home/ccn/.local/lib/python3.9/site-packages/numpy/polynomial/hermite.py',
   'PYMODULE'),
  ('numpy.polynomial.legendre',
   '/home/ccn/.local/lib/python3.9/site-packages/numpy/polynomial/legendre.py',
   'PYMODULE'),
  ('numpy.polynomial.chebyshev',
   '/home/ccn/.local/lib/python3.9/site-packages/numpy/polynomial/chebyshev.py',
   'PYMODULE'),
  ('numpy.polynomial.polynomial',
   '/home/ccn/.local/lib/python3.9/site-packages/numpy/polynomial/polynomial.py',
   'PYMODULE'),
  ('numpy.polynomial.polyutils',
   '/home/ccn/.local/lib/python3.9/site-packages/numpy/polynomial/polyutils.py',
   'PYMODULE'),
  ('numpy.fft',
   '/home/ccn/.local/lib/python3.9/site-packages/numpy/fft/__init__.py',
   'PYMODULE'),
  ('numpy.fft.helper',
   '/home/ccn/.local/lib/python3.9/site-packages/numpy/fft/helper.py',
   'PYMODULE'),
  ('numpy.fft._pocketfft',
   '/home/ccn/.local/lib/python3.9/site-packages/numpy/fft/_pocketfft.py',
   'PYMODULE'),
  ('numpy.linalg',
   '/home/ccn/.local/lib/python3.9/site-packages/numpy/linalg/__init__.py',
   'PYMODULE'),
  ('numpy.linalg.linalg',
   '/home/ccn/.local/lib/python3.9/site-packages/numpy/linalg/linalg.py',
   'PYMODULE'),
  ('numpy.lib',
   '/home/ccn/.local/lib/python3.9/site-packages/numpy/lib/__init__.py',
   'PYMODULE'),
  ('numpy.lib._version',
   '/home/ccn/.local/lib/python3.9/site-packages/numpy/lib/_version.py',
   'PYMODULE'),
  ('numpy.lib.arraypad',
   '/home/ccn/.local/lib/python3.9/site-packages/numpy/lib/arraypad.py',
   'PYMODULE'),
  ('numpy.lib.arrayterator',
   '/home/ccn/.local/lib/python3.9/site-packages/numpy/lib/arrayterator.py',
   'PYMODULE'),
  ('numpy.lib.npyio',
   '/home/ccn/.local/lib/python3.9/site-packages/numpy/lib/npyio.py',
   'PYMODULE'),
  ('numpy.ma.mrecords',
   '/home/ccn/.local/lib/python3.9/site-packages/numpy/ma/mrecords.py',
   'PYMODULE'),
  ('numpy.core.records',
   '/home/ccn/.local/lib/python3.9/site-packages/numpy/core/records.py',
   'PYMODULE'),
  ('numpy.lib._iotools',
   '/home/ccn/.local/lib/python3.9/site-packages/numpy/lib/_iotools.py',
   'PYMODULE'),
  ('numpy.lib._datasource',
   '/home/ccn/.local/lib/python3.9/site-packages/numpy/lib/_datasource.py',
   'PYMODULE'),
  ('numpy.lib.format',
   '/home/ccn/.local/lib/python3.9/site-packages/numpy/lib/format.py',
   'PYMODULE'),
  ('numpy.lib.arraysetops',
   '/home/ccn/.local/lib/python3.9/site-packages/numpy/lib/arraysetops.py',
   'PYMODULE'),
  ('numpy.lib.utils',
   '/home/ccn/.local/lib/python3.9/site-packages/numpy/lib/utils.py',
   'PYMODULE'),
  ('numpy.lib.polynomial',
   '/home/ccn/.local/lib/python3.9/site-packages/numpy/lib/polynomial.py',
   'PYMODULE'),
  ('numpy.lib.ufunclike',
   '/home/ccn/.local/lib/python3.9/site-packages/numpy/lib/ufunclike.py',
   'PYMODULE'),
  ('numpy.lib.shape_base',
   '/home/ccn/.local/lib/python3.9/site-packages/numpy/lib/shape_base.py',
   'PYMODULE'),
  ('numpy.lib.nanfunctions',
   '/home/ccn/.local/lib/python3.9/site-packages/numpy/lib/nanfunctions.py',
   'PYMODULE'),
  ('numpy.lib.type_check',
   '/home/ccn/.local/lib/python3.9/site-packages/numpy/lib/type_check.py',
   'PYMODULE'),
  ('numpy.core.getlimits',
   '/home/ccn/.local/lib/python3.9/site-packages/numpy/core/getlimits.py',
   'PYMODULE'),
  ('numpy.core.machar',
   '/home/ccn/.local/lib/python3.9/site-packages/numpy/core/machar.py',
   'PYMODULE'),
  ('numpy.lib.scimath',
   '/home/ccn/.local/lib/python3.9/site-packages/numpy/lib/scimath.py',
   'PYMODULE'),
  ('numpy.lib.mixins',
   '/home/ccn/.local/lib/python3.9/site-packages/numpy/lib/mixins.py',
   'PYMODULE'),
  ('numpy.compat',
   '/home/ccn/.local/lib/python3.9/site-packages/numpy/compat/__init__.py',
   'PYMODULE'),
  ('numpy.compat.py3k',
   '/home/ccn/.local/lib/python3.9/site-packages/numpy/compat/py3k.py',
   'PYMODULE'),
  ('numpy.core',
   '/home/ccn/.local/lib/python3.9/site-packages/numpy/core/__init__.py',
   'PYMODULE'),
  ('numpy.core._add_newdocs_scalars',
   '/home/ccn/.local/lib/python3.9/site-packages/numpy/core/_add_newdocs_scalars.py',
   'PYMODULE'),
  ('numpy.core._add_newdocs',
   '/home/ccn/.local/lib/python3.9/site-packages/numpy/core/_add_newdocs.py',
   'PYMODULE'),
  ('numpy.core.einsumfunc',
   '/home/ccn/.local/lib/python3.9/site-packages/numpy/core/einsumfunc.py',
   'PYMODULE'),
  ('numpy.core.memmap',
   '/home/ccn/.local/lib/python3.9/site-packages/numpy/core/memmap.py',
   'PYMODULE'),
  ('numpy.core.defchararray',
   '/home/ccn/.local/lib/python3.9/site-packages/numpy/core/defchararray.py',
   'PYMODULE'),
  ('numpy._distributor_init',
   '/home/ccn/.local/lib/python3.9/site-packages/numpy/_distributor_init.py',
   'PYMODULE'),
  ('numpy.version',
   '/home/ccn/.local/lib/python3.9/site-packages/numpy/version.py',
   'PYMODULE'),
  ('numpy.__config__',
   '/home/ccn/.local/lib/python3.9/site-packages/numpy/__config__.py',
   'PYMODULE'),
  ('numpy._globals',
   '/home/ccn/.local/lib/python3.9/site-packages/numpy/_globals.py',
   'PYMODULE'),
  ('decimal', '/usr/lib/python3.9/decimal.py', 'PYMODULE'),
  ('_pydecimal', '/usr/lib/python3.9/_pydecimal.py', 'PYMODULE'),
  ('json', '/usr/lib/python3.9/json/__init__.py', 'PYMODULE'),
  ('json.encoder', '/usr/lib/python3.9/json/encoder.py', 'PYMODULE'),
  ('json.decoder', '/usr/lib/python3.9/json/decoder.py', 'PYMODULE'),
  ('json.scanner', '/usr/lib/python3.9/json/scanner.py', 'PYMODULE'),
  ('pep517.envbuild',
   '/usr/lib/python3.9/site-packages/pep517/envbuild.py',
   'PYMODULE'),
  ('zipp', '/usr/lib/python3.9/site-packages/zipp.py', 'PYMODULE'),
  ('importlib_metadata',
   '/usr/lib/python3.9/site-packages/importlib_metadata/__init__.py',
   'PYMODULE'),
  ('importlib_metadata._itertools',
   '/usr/lib/python3.9/site-packages/importlib_metadata/_itertools.py',
   'PYMODULE'),
  ('importlib_metadata._functools',
   '/usr/lib/python3.9/site-packages/importlib_metadata/_functools.py',
   'PYMODULE'),
  ('importlib_metadata._compat',
   '/usr/lib/python3.9/site-packages/importlib_metadata/_compat.py',
   'PYMODULE'),
  ('typing_extensions',
   '/usr/lib/python3.9/site-packages/typing_extensions.py',
   'PYMODULE'),
  ('importlib_metadata._collections',
   '/usr/lib/python3.9/site-packages/importlib_metadata/_collections.py',
   'PYMODULE'),
  ('importlib_metadata._meta',
   '/usr/lib/python3.9/site-packages/importlib_metadata/_meta.py',
   'PYMODULE'),
  ('importlib_metadata._adapters',
   '/usr/lib/python3.9/site-packages/importlib_metadata/_adapters.py',
   'PYMODULE'),
  ('importlib_metadata._text',
   '/usr/lib/python3.9/site-packages/importlib_metadata/_text.py',
   'PYMODULE'),
  ('pep517.build',
   '/usr/lib/python3.9/site-packages/pep517/build.py',
   'PYMODULE'),
  ('pep517', '/usr/lib/python3.9/site-packages/pep517/__init__.py', 'PYMODULE'),
  ('configparser', '/usr/lib/python3.9/configparser.py', 'PYMODULE'),
  ('csv', '/usr/lib/python3.9/csv.py', 'PYMODULE'),
  ('importlib._bootstrap',
   '/usr/lib/python3.9/importlib/_bootstrap.py',
   'PYMODULE'),
  ('runpy', '/usr/lib/python3.9/runpy.py', 'PYMODULE'),
  ('shlex', '/usr/lib/python3.9/shlex.py', 'PYMODULE'),
  ('tokenize', '/usr/lib/python3.9/tokenize.py', 'PYMODULE'),
  ('token', '/usr/lib/python3.9/token.py', 'PYMODULE'),
  ('glob', '/usr/lib/python3.9/glob.py', 'PYMODULE'),
  ('code', '/usr/lib/python3.9/code.py', 'PYMODULE'),
  ('codeop', '/usr/lib/python3.9/codeop.py', 'PYMODULE'),
  ('dis', '/usr/lib/python3.9/dis.py', 'PYMODULE'),
  ('opcode', '/usr/lib/python3.9/opcode.py', 'PYMODULE'),
  ('bdb', '/usr/lib/python3.9/bdb.py', 'PYMODULE'),
  ('cmd', '/usr/lib/python3.9/cmd.py', 'PYMODULE'),
  ('datetime', '/usr/lib/python3.9/datetime.py', 'PYMODULE'),
  ('_strptime', '/usr/lib/python3.9/_strptime.py', 'PYMODULE'),
  ('pprint', '/usr/lib/python3.9/pprint.py', 'PYMODULE'),
  ('copy', '/usr/lib/python3.9/copy.py', 'PYMODULE'),
  ('string', '/usr/lib/python3.9/string.py', 'PYMODULE'),
  ('__future__', '/usr/lib/python3.9/__future__.py', 'PYMODULE'),
  ('packaging.utils',
   '/usr/lib/python3.9/site-packages/packaging/utils.py',
   'PYMODULE'),
  ('packaging.__about__',
   '/usr/lib/python3.9/site-packages/packaging/__about__.py',
   'PYMODULE'),
  ('packaging._typing',
   '/usr/lib/python3.9/site-packages/packaging/_typing.py',
   'PYMODULE'),
  ('packaging.version',
   '/usr/lib/python3.9/site-packages/packaging/version.py',
   'PYMODULE'),
  ('packaging.requirements',
   '/usr/lib/python3.9/site-packages/packaging/requirements.py',
   'PYMODULE'),
  ('packaging.tags',
   '/usr/lib/python3.9/site-packages/packaging/tags.py',
   'PYMODULE'),
  ('distutils.util', '/usr/lib/python3.9/distutils/util.py', 'PYMODULE'),
  ('distutils.filelist',
   '/usr/lib/python3.9/distutils/filelist.py',
   'PYMODULE'),
  ('distutils.debug', '/usr/lib/python3.9/distutils/debug.py', 'PYMODULE'),
  ('distutils.file_util',
   '/usr/lib/python3.9/distutils/file_util.py',
   'PYMODULE'),
  ('distutils.dir_util',
   '/usr/lib/python3.9/distutils/dir_util.py',
   'PYMODULE'),
  ('py_compile', '/usr/lib/python3.9/py_compile.py', 'PYMODULE'),
  ('distutils.sysconfig',
   '/usr/lib/python3.9/distutils/sysconfig.py',
   'PYMODULE'),
  ('distutils.text_file',
   '/usr/lib/python3.9/distutils/text_file.py',
   'PYMODULE'),
  ('_osx_support', '/usr/lib/python3.9/_osx_support.py', 'PYMODULE'),
  ('_aix_support', '/usr/lib/python3.9/_aix_support.py', 'PYMODULE'),
  ('_bootsubprocess', '/usr/lib/python3.9/_bootsubprocess.py', 'PYMODULE'),
  ('distutils.log', '/usr/lib/python3.9/distutils/log.py', 'PYMODULE'),
  ('distutils', '/usr/lib/python3.9/distutils/__init__.py', 'PYMODULE'),
  ('_sysconfigdata__linux_x86_64-linux-gnu',
   '/usr/lib/python3.9/_sysconfigdata__linux_x86_64-linux-gnu.py',
   'PYMODULE'),
  ('distutils.archive_util',
   '/usr/lib/python3.9/distutils/archive_util.py',
   'PYMODULE'),
  ('distutils.ccompiler',
   '/usr/lib/python3.9/distutils/ccompiler.py',
   'PYMODULE'),
  ('distutils.fancy_getopt',
   '/usr/lib/python3.9/distutils/fancy_getopt.py',
   'PYMODULE'),
  ('distutils.spawn', '/usr/lib/python3.9/distutils/spawn.py', 'PYMODULE'),
  ('distutils.dep_util',
   '/usr/lib/python3.9/distutils/dep_util.py',
   'PYMODULE'),
  ('distutils.errors', '/usr/lib/python3.9/distutils/errors.py', 'PYMODULE'),
  ('packaging._compat',
   '/usr/lib/python3.9/site-packages/packaging/_compat.py',
   'PYMODULE'),
  ('packaging.specifiers',
   '/usr/lib/python3.9/site-packages/packaging/specifiers.py',
   'PYMODULE'),
  ('packaging._structures',
   '/usr/lib/python3.9/site-packages/packaging/_structures.py',
   'PYMODULE'),
  ('sysconfig', '/usr/lib/python3.9/sysconfig.py', 'PYMODULE'),
  ('packaging',
   '/usr/lib/python3.9/site-packages/packaging/__init__.py',
   'PYMODULE'),
  ('appdirs', '/usr/lib/python3.9/site-packages/appdirs.py', 'PYMODULE'),
  ('importlib.machinery',
   '/usr/lib/python3.9/importlib/machinery.py',
   'PYMODULE'),
  ('imp', '/usr/lib/python3.9/imp.py', 'PYMODULE'),
  ('importlib', '/usr/lib/python3.9/importlib/__init__.py', 'PYMODULE'),
  ('posixpath', '/usr/lib/python3.9/posixpath.py', 'PYMODULE'),
  ('genericpath', '/usr/lib/python3.9/genericpath.py', 'PYMODULE'),
  ('ntpath', '/usr/lib/python3.9/ntpath.py', 'PYMODULE'),
  ('inspect', '/usr/lib/python3.9/inspect.py', 'PYMODULE'),
  ('textwrap', '/usr/lib/python3.9/textwrap.py', 'PYMODULE'),
  ('tempfile', '/usr/lib/python3.9/tempfile.py', 'PYMODULE'),
  ('email.parser', '/usr/lib/python3.9/email/parser.py', 'PYMODULE'),
  ('email.feedparser', '/usr/lib/python3.9/email/feedparser.py', 'PYMODULE'),
  ('plistlib', '/usr/lib/python3.9/plistlib.py', 'PYMODULE'),
  ('platform', '/usr/lib/python3.9/platform.py', 'PYMODULE'),
  ('pkgutil', '/usr/lib/python3.9/pkgutil.py', 'PYMODULE'),
  ('stat', '/usr/lib/python3.9/stat.py', 'PYMODULE'),
  ('zipimport', '/usr/lib/python3.9/zipimport.py', 'PYMODULE'),
  ('zipfile', '/usr/lib/python3.9/zipfile.py', 'PYMODULE'),
  ('pathlib', '/usr/lib/python3.9/pathlib.py', 'PYMODULE'),
  ('os', '/usr/lib/python3.9/os.py', 'PYMODULE'),
  ('tracemalloc', '/usr/lib/python3.9/tracemalloc.py', 'PYMODULE'),
  ('stringprep', '/usr/lib/python3.9/stringprep.py', 'PYMODULE'),
  ('_py_abc', '/usr/lib/python3.9/_py_abc.py', 'PYMODULE'),
  ('fractions', '/usr/lib/python3.9/fractions.py', 'PYMODULE'),
  ('logging', '/usr/lib/python3.9/logging/__init__.py', 'PYMODULE'),
  ('random', '/usr/lib/python3.9/random.py', 'PYMODULE'),
  ('statistics', '/usr/lib/python3.9/statistics.py', 'PYMODULE'),
  ('pickle', '/usr/lib/python3.9/pickle.py', 'PYMODULE'),
  ('_compat_pickle', '/usr/lib/python3.9/_compat_pickle.py', 'PYMODULE'),
  ('helpers', '/home/ccn/frag-x/helpers.py', 'PYMODULE'),
  ('game_modes', '/home/ccn/frag-x/game_modes.py', 'PYMODULE'),
  ('client_server_communication',
   '/home/ccn/frag-x/client_server_communication.py',
   'PYMODULE'),
  ('managers', '/home/ccn/frag-x/managers.py', 'PYMODULE'),
  ('textbox', '/home/ccn/frag-x/textbox.py', 'PYMODULE'),
  ('weapons', '/home/ccn/frag-x/weapons.py', 'PYMODULE'),
  ('body', '/home/ccn/frag-x/body.py', 'PYMODULE'),
  ('collisions', '/home/ccn/frag-x/collisions.py', 'PYMODULE'),
  ('intersections', '/home/ccn/frag-x/intersections.py', 'PYMODULE'),
  ('chatbox', '/home/ccn/frag-x/chatbox.py', 'PYMODULE'),
  ('dev_constants', '/home/ccn/frag-x/dev_constants.py', 'PYMODULE'),
  ('map_loading', '/home/ccn/frag-x/map_loading.py', 'PYMODULE'),
  ('PIL.Image', '/usr/lib/python3.9/site-packages/PIL/Image.py', 'PYMODULE'),
  ('PIL.CurImagePlugin',
   '/usr/lib/python3.9/site-packages/PIL/CurImagePlugin.py',
   'PYMODULE'),
  ('PIL.IptcImagePlugin',
   '/usr/lib/python3.9/site-packages/PIL/IptcImagePlugin.py',
   'PYMODULE'),
  ('PIL.ImageFile',
   '/usr/lib/python3.9/site-packages/PIL/ImageFile.py',
   'PYMODULE'),
  ('PIL.FliImagePlugin',
   '/usr/lib/python3.9/site-packages/PIL/FliImagePlugin.py',
   'PYMODULE'),
  ('PIL.SgiImagePlugin',
   '/usr/lib/python3.9/site-packages/PIL/SgiImagePlugin.py',
   'PYMODULE'),
  ('PIL.WmfImagePlugin',
   '/usr/lib/python3.9/site-packages/PIL/WmfImagePlugin.py',
   'PYMODULE'),
  ('PIL.GribStubImagePlugin',
   '/usr/lib/python3.9/site-packages/PIL/GribStubImagePlugin.py',
   'PYMODULE'),
  ('PIL.WebPImagePlugin',
   '/usr/lib/python3.9/site-packages/PIL/WebPImagePlugin.py',
   'PYMODULE'),
  ('PIL.PcxImagePlugin',
   '/usr/lib/python3.9/site-packages/PIL/PcxImagePlugin.py',
   'PYMODULE'),
  ('PIL.FpxImagePlugin',
   '/usr/lib/python3.9/site-packages/PIL/FpxImagePlugin.py',
   'PYMODULE'),
  ('PIL.EpsImagePlugin',
   '/usr/lib/python3.9/site-packages/PIL/EpsImagePlugin.py',
   'PYMODULE'),
  ('PIL.IcoImagePlugin',
   '/usr/lib/python3.9/site-packages/PIL/IcoImagePlugin.py',
   'PYMODULE'),
  ('PIL.XpmImagePlugin',
   '/usr/lib/python3.9/site-packages/PIL/XpmImagePlugin.py',
   'PYMODULE'),
  ('PIL.ImtImagePlugin',
   '/usr/lib/python3.9/site-packages/PIL/ImtImagePlugin.py',
   'PYMODULE'),
  ('PIL.PsdImagePlugin',
   '/usr/lib/python3.9/site-packages/PIL/PsdImagePlugin.py',
   'PYMODULE'),
  ('PIL.ImImagePlugin',
   '/usr/lib/python3.9/site-packages/PIL/ImImagePlugin.py',
   'PYMODULE'),
  ('PIL.MpoImagePlugin',
   '/usr/lib/python3.9/site-packages/PIL/MpoImagePlugin.py',
   'PYMODULE'),
  ('PIL.DdsImagePlugin',
   '/usr/lib/python3.9/site-packages/PIL/DdsImagePlugin.py',
   'PYMODULE'),
  ('PIL.XVThumbImagePlugin',
   '/usr/lib/python3.9/site-packages/PIL/XVThumbImagePlugin.py',
   'PYMODULE'),
  ('PIL.XbmImagePlugin',
   '/usr/lib/python3.9/site-packages/PIL/XbmImagePlugin.py',
   'PYMODULE'),
  ('PIL.PalmImagePlugin',
   '/usr/lib/python3.9/site-packages/PIL/PalmImagePlugin.py',
   'PYMODULE'),
  ('PIL.PcdImagePlugin',
   '/usr/lib/python3.9/site-packages/PIL/PcdImagePlugin.py',
   'PYMODULE'),
  ('PIL.MpegImagePlugin',
   '/usr/lib/python3.9/site-packages/PIL/MpegImagePlugin.py',
   'PYMODULE'),
  ('PIL.FtexImagePlugin',
   '/usr/lib/python3.9/site-packages/PIL/FtexImagePlugin.py',
   'PYMODULE'),
  ('PIL.IcnsImagePlugin',
   '/usr/lib/python3.9/site-packages/PIL/IcnsImagePlugin.py',
   'PYMODULE'),
  ('PIL.features',
   '/usr/lib/python3.9/site-packages/PIL/features.py',
   'PYMODULE'),
  ('PIL.McIdasImagePlugin',
   '/usr/lib/python3.9/site-packages/PIL/McIdasImagePlugin.py',
   'PYMODULE'),
  ('PIL.Hdf5StubImagePlugin',
   '/usr/lib/python3.9/site-packages/PIL/Hdf5StubImagePlugin.py',
   'PYMODULE'),
  ('PIL.GbrImagePlugin',
   '/usr/lib/python3.9/site-packages/PIL/GbrImagePlugin.py',
   'PYMODULE'),
  ('PIL.DcxImagePlugin',
   '/usr/lib/python3.9/site-packages/PIL/DcxImagePlugin.py',
   'PYMODULE'),
  ('PIL.BufrStubImagePlugin',
   '/usr/lib/python3.9/site-packages/PIL/BufrStubImagePlugin.py',
   'PYMODULE'),
  ('PIL.TgaImagePlugin',
   '/usr/lib/python3.9/site-packages/PIL/TgaImagePlugin.py',
   'PYMODULE'),
  ('PIL.FitsStubImagePlugin',
   '/usr/lib/python3.9/site-packages/PIL/FitsStubImagePlugin.py',
   'PYMODULE'),
  ('PIL.SpiderImagePlugin',
   '/usr/lib/python3.9/site-packages/PIL/SpiderImagePlugin.py',
   'PYMODULE'),
  ('PIL.ImageTk',
   '/usr/lib/python3.9/site-packages/PIL/ImageTk.py',
   'PYMODULE'),
  ('tkinter', '/usr/lib/python3.9/tkinter/__init__.py', 'PYMODULE'),
  ('tkinter.constants', '/usr/lib/python3.9/tkinter/constants.py', 'PYMODULE'),
  ('PIL.PdfImagePlugin',
   '/usr/lib/python3.9/site-packages/PIL/PdfImagePlugin.py',
   'PYMODULE'),
  ('PIL.PdfParser',
   '/usr/lib/python3.9/site-packages/PIL/PdfParser.py',
   'PYMODULE'),
  ('PIL.ImageSequence',
   '/usr/lib/python3.9/site-packages/PIL/ImageSequence.py',
   'PYMODULE'),
  ('PIL.MicImagePlugin',
   '/usr/lib/python3.9/site-packages/PIL/MicImagePlugin.py',
   'PYMODULE'),
  ('PIL.SunImagePlugin',
   '/usr/lib/python3.9/site-packages/PIL/SunImagePlugin.py',
   'PYMODULE'),
  ('PIL.MspImagePlugin',
   '/usr/lib/python3.9/site-packages/PIL/MspImagePlugin.py',
   'PYMODULE'),
  ('PIL.Jpeg2KImagePlugin',
   '/usr/lib/python3.9/site-packages/PIL/Jpeg2KImagePlugin.py',
   'PYMODULE'),
  ('PIL.BlpImagePlugin',
   '/usr/lib/python3.9/site-packages/PIL/BlpImagePlugin.py',
   'PYMODULE'),
  ('PIL.PixarImagePlugin',
   '/usr/lib/python3.9/site-packages/PIL/PixarImagePlugin.py',
   'PYMODULE'),
  ('PIL.TiffImagePlugin',
   '/usr/lib/python3.9/site-packages/PIL/TiffImagePlugin.py',
   'PYMODULE'),
  ('PIL.ImageShow',
   '/usr/lib/python3.9/site-packages/PIL/ImageShow.py',
   'PYMODULE'),
  ('PIL.ImageQt',
   '/usr/lib/python3.9/site-packages/PIL/ImageQt.py',
   'PYMODULE'),
  ('PIL.ImageColor',
   '/usr/lib/python3.9/site-packages/PIL/ImageColor.py',
   'PYMODULE'),
  ('colorsys', '/usr/lib/python3.9/colorsys.py', 'PYMODULE'),
  ('PIL.ImageFilter',
   '/usr/lib/python3.9/site-packages/PIL/ImageFilter.py',
   'PYMODULE'),
  ('PIL.PyAccess',
   '/usr/lib/python3.9/site-packages/PIL/PyAccess.py',
   'PYMODULE'),
  ('PIL.ImagePalette',
   '/usr/lib/python3.9/site-packages/PIL/ImagePalette.py',
   'PYMODULE'),
  ('PIL.PaletteFile',
   '/usr/lib/python3.9/site-packages/PIL/PaletteFile.py',
   'PYMODULE'),
  ('PIL.GimpPaletteFile',
   '/usr/lib/python3.9/site-packages/PIL/GimpPaletteFile.py',
   'PYMODULE'),
  ('PIL.GimpGradientFile',
   '/usr/lib/python3.9/site-packages/PIL/GimpGradientFile.py',
   'PYMODULE'),
  ('PIL.PngImagePlugin',
   '/usr/lib/python3.9/site-packages/PIL/PngImagePlugin.py',
   'PYMODULE'),
  ('PIL.ImageChops',
   '/usr/lib/python3.9/site-packages/PIL/ImageChops.py',
   'PYMODULE'),
  ('PIL.PpmImagePlugin',
   '/usr/lib/python3.9/site-packages/PIL/PpmImagePlugin.py',
   'PYMODULE'),
  ('PIL.JpegImagePlugin',
   '/usr/lib/python3.9/site-packages/PIL/JpegImagePlugin.py',
   'PYMODULE'),
  ('PIL.JpegPresets',
   '/usr/lib/python3.9/site-packages/PIL/JpegPresets.py',
   'PYMODULE'),
  ('PIL.GifImagePlugin',
   '/usr/lib/python3.9/site-packages/PIL/GifImagePlugin.py',
   'PYMODULE'),
  ('PIL.BmpImagePlugin',
   '/usr/lib/python3.9/site-packages/PIL/BmpImagePlugin.py',
   'PYMODULE'),
  ('cffi', '/usr/lib/python3.9/site-packages/cffi/__init__.py', 'PYMODULE'),
  ('cffi.error', '/usr/lib/python3.9/site-packages/cffi/error.py', 'PYMODULE'),
  ('cffi.api', '/usr/lib/python3.9/site-packages/cffi/api.py', 'PYMODULE'),
  ('ctypes.util', '/usr/lib/python3.9/ctypes/util.py', 'PYMODULE'),
  ('ctypes._aix', '/usr/lib/python3.9/ctypes/_aix.py', 'PYMODULE'),
  ('ctypes.macholib.dyld',
   '/usr/lib/python3.9/ctypes/macholib/dyld.py',
   'PYMODULE'),
  ('ctypes.macholib',
   '/usr/lib/python3.9/ctypes/macholib/__init__.py',
   'PYMODULE'),
  ('ctypes.macholib.dylib',
   '/usr/lib/python3.9/ctypes/macholib/dylib.py',
   'PYMODULE'),
  ('ctypes.macholib.framework',
   '/usr/lib/python3.9/ctypes/macholib/framework.py',
   'PYMODULE'),
  ('cffi.recompiler',
   '/usr/lib/python3.9/site-packages/cffi/recompiler.py',
   'PYMODULE'),
  ('distutils.command.build_ext',
   '/usr/lib/python3.9/distutils/command/build_ext.py',
   'PYMODULE'),
  ('distutils.command',
   '/usr/lib/python3.9/distutils/command/__init__.py',
   'PYMODULE'),
  ('distutils._msvccompiler',
   '/usr/lib/python3.9/distutils/_msvccompiler.py',
   'PYMODULE'),
  ('site',
   '/usr/lib/python3.9/site-packages/PyInstaller/fake-modules/site.py',
   'PYMODULE'),
  ('distutils.extension',
   '/usr/lib/python3.9/distutils/extension.py',
   'PYMODULE'),
  ('distutils.core', '/usr/lib/python3.9/distutils/core.py', 'PYMODULE'),
  ('distutils.config', '/usr/lib/python3.9/distutils/config.py', 'PYMODULE'),
  ('cgi', '/usr/lib/python3.9/cgi.py', 'PYMODULE'),
  ('distutils.cmd', '/usr/lib/python3.9/distutils/cmd.py', 'PYMODULE'),
  ('distutils.dist', '/usr/lib/python3.9/distutils/dist.py', 'PYMODULE'),
  ('distutils.versionpredicate',
   '/usr/lib/python3.9/distutils/versionpredicate.py',
   'PYMODULE'),
  ('distutils.version', '/usr/lib/python3.9/distutils/version.py', 'PYMODULE'),
  ('distutils.msvc9compiler',
   '/usr/lib/python3.9/distutils/msvc9compiler.py',
   'PYMODULE'),
  ('cffi.cffi_opcode',
   '/usr/lib/python3.9/site-packages/cffi/cffi_opcode.py',
   'PYMODULE'),
  ('cffi.verifier',
   '/usr/lib/python3.9/site-packages/cffi/verifier.py',
   'PYMODULE'),
  ('cffi.lock', '/usr/lib/python3.9/site-packages/cffi/lock.py', 'PYMODULE'),
  ('cffi.pkgconfig',
   '/usr/lib/python3.9/site-packages/cffi/pkgconfig.py',
   'PYMODULE'),
  ('cffi.vengine_cpy',
   '/usr/lib/python3.9/site-packages/cffi/vengine_cpy.py',
   'PYMODULE'),
  ('cffi.vengine_gen',
   '/usr/lib/python3.9/site-packages/cffi/vengine_gen.py',
   'PYMODULE'),
  ('cffi.ffiplatform',
   '/usr/lib/python3.9/site-packages/cffi/ffiplatform.py',
   'PYMODULE'),
  ('setuptools',
   '/usr/lib/python3.9/site-packages/setuptools/__init__.py',
   'PYMODULE'),
  ('setuptools.msvc',
   '/usr/lib/python3.9/site-packages/setuptools/msvc.py',
   'PYMODULE'),
  ('more_itertools',
   '/usr/lib/python3.9/site-packages/more_itertools/__init__.py',
   'PYMODULE'),
  ('more_itertools.recipes',
   '/usr/lib/python3.9/site-packages/more_itertools/recipes.py',
   'PYMODULE'),
  ('more_itertools.more',
   '/usr/lib/python3.9/site-packages/more_itertools/more.py',
   'PYMODULE'),
  ('setuptools.namespaces',
   '/usr/lib/python3.9/site-packages/setuptools/namespaces.py',
   'PYMODULE'),
  ('setuptools.monkey',
   '/usr/lib/python3.9/site-packages/setuptools/monkey.py',
   'PYMODULE'),
  ('setuptools.depends',
   '/usr/lib/python3.9/site-packages/setuptools/depends.py',
   'PYMODULE'),
  ('setuptools._imp',
   '/usr/lib/python3.9/site-packages/setuptools/_imp.py',
   'PYMODULE'),
  ('setuptools.py34compat',
   '/usr/lib/python3.9/site-packages/setuptools/py34compat.py',
   'PYMODULE'),
  ('setuptools.dist',
   '/usr/lib/python3.9/site-packages/setuptools/dist.py',
   'PYMODULE'),
  ('setuptools.installer',
   '/usr/lib/python3.9/site-packages/setuptools/installer.py',
   'PYMODULE'),
  ('setuptools.wheel',
   '/usr/lib/python3.9/site-packages/setuptools/wheel.py',
   'PYMODULE'),
  ('setuptools.command.egg_info',
   '/usr/lib/python3.9/site-packages/setuptools/command/egg_info.py',
   'PYMODULE'),
  ('setuptools.glob',
   '/usr/lib/python3.9/site-packages/setuptools/glob.py',
   'PYMODULE'),
  ('setuptools.unicode_utils',
   '/usr/lib/python3.9/site-packages/setuptools/unicode_utils.py',
   'PYMODULE'),
  ('setuptools.command.bdist_egg',
   '/usr/lib/python3.9/site-packages/setuptools/command/bdist_egg.py',
   'PYMODULE'),
  ('setuptools.command.setopt',
   '/usr/lib/python3.9/site-packages/setuptools/command/setopt.py',
   'PYMODULE'),
  ('setuptools.command.sdist',
   '/usr/lib/python3.9/site-packages/setuptools/command/sdist.py',
   'PYMODULE'),
  ('setuptools.command.py36compat',
   '/usr/lib/python3.9/site-packages/setuptools/command/py36compat.py',
   'PYMODULE'),
  ('distutils.command.sdist',
   '/usr/lib/python3.9/distutils/command/sdist.py',
   'PYMODULE'),
  ('setuptools.config',
   '/usr/lib/python3.9/site-packages/setuptools/config.py',
   'PYMODULE'),
  ('setuptools.command',
   '/usr/lib/python3.9/site-packages/setuptools/command/__init__.py',
   'PYMODULE'),
  ('setuptools.command.easy_install',
   '/usr/lib/python3.9/site-packages/setuptools/command/easy_install.py',
   'PYMODULE'),
  ('setuptools.package_index',
   '/usr/lib/python3.9/site-packages/setuptools/package_index.py',
   'PYMODULE'),
  ('setuptools.archive_util',
   '/usr/lib/python3.9/site-packages/setuptools/archive_util.py',
   'PYMODULE'),
  ('setuptools.sandbox',
   '/usr/lib/python3.9/site-packages/setuptools/sandbox.py',
   'PYMODULE'),
  ('distutils.command.build_scripts',
   '/usr/lib/python3.9/distutils/command/build_scripts.py',
   'PYMODULE'),
  ('distutils.command.install',
   '/usr/lib/python3.9/distutils/command/install.py',
   'PYMODULE'),
  ('distutils.command.bdist',
   '/usr/lib/python3.9/distutils/command/bdist.py',
   'PYMODULE'),
  ('ordered_set',
   '/usr/lib/python3.9/site-packages/ordered_set.py',
   'PYMODULE'),
  ('setuptools.windows_support',
   '/usr/lib/python3.9/site-packages/setuptools/windows_support.py',
   'PYMODULE'),
  ('setuptools.extension',
   '/usr/lib/python3.9/site-packages/setuptools/extension.py',
   'PYMODULE'),
  ('setuptools.version',
   '/usr/lib/python3.9/site-packages/setuptools/version.py',
   'PYMODULE'),
  ('setuptools._deprecation_warning',
   '/usr/lib/python3.9/site-packages/setuptools/_deprecation_warning.py',
   'PYMODULE'),
  ('_distutils_hack.override',
   '/usr/lib/python3.9/site-packages/_distutils_hack/override.py',
   'PYMODULE'),
  ('_distutils_hack',
   '/usr/lib/python3.9/site-packages/_distutils_hack/__init__.py',
   'PYMODULE'),
  ('cffi.cparser',
   '/usr/lib/python3.9/site-packages/cffi/cparser.py',
   'PYMODULE'),
  ('pycparser.lextab',
   '/usr/lib/python3.9/site-packages/pycparser/lextab.py',
   'PYMODULE'),
  ('pycparser.yacctab',
   '/usr/lib/python3.9/site-packages/pycparser/yacctab.py',
   'PYMODULE'),
  ('pycparser',
   '/usr/lib/python3.9/site-packages/pycparser/__init__.py',
   'PYMODULE'),
  ('pycparser.c_parser',
   '/usr/lib/python3.9/site-packages/pycparser/c_parser.py',
   'PYMODULE'),
  ('pycparser.ast_transforms',
   '/usr/lib/python3.9/site-packages/pycparser/ast_transforms.py',
   'PYMODULE'),
  ('pycparser.plyparser',
   '/usr/lib/python3.9/site-packages/pycparser/plyparser.py',
   'PYMODULE'),
  ('pycparser.c_lexer',
   '/usr/lib/python3.9/site-packages/pycparser/c_lexer.py',
   'PYMODULE'),
  ('pycparser.ply.lex',
   '/usr/lib/python3.9/site-packages/pycparser/ply/lex.py',
   'PYMODULE'),
  ('pycparser.ply.yacc',
   '/usr/lib/python3.9/site-packages/pycparser/ply/yacc.py',
   'PYMODULE'),
  ('pycparser.ply',
   '/usr/lib/python3.9/site-packages/pycparser/ply/__init__.py',
   'PYMODULE'),
  ('pycparser.c_ast',
   '/usr/lib/python3.9/site-packages/pycparser/c_ast.py',
   'PYMODULE'),
  ('cffi.commontypes',
   '/usr/lib/python3.9/site-packages/cffi/commontypes.py',
   'PYMODULE'),
  ('cffi.model', '/usr/lib/python3.9/site-packages/cffi/model.py', 'PYMODULE'),
  ('PIL._util', '/usr/lib/python3.9/site-packages/PIL/_util.py', 'PYMODULE'),
  ('PIL._binary',
   '/usr/lib/python3.9/site-packages/PIL/_binary.py',
   'PYMODULE'),
  ('PIL.TiffTags',
   '/usr/lib/python3.9/site-packages/PIL/TiffTags.py',
   'PYMODULE'),
  ('PIL.ImageMode',
   '/usr/lib/python3.9/site-packages/PIL/ImageMode.py',
   'PYMODULE'),
  ('PIL', '/usr/lib/python3.9/site-packages/PIL/__init__.py', 'PYMODULE'),
  ('PIL._version',
   '/usr/lib/python3.9/site-packages/PIL/_version.py',
   'PYMODULE'),
  ('threading', '/usr/lib/python3.9/threading.py', 'PYMODULE'),
  ('_threading_local', '/usr/lib/python3.9/_threading_local.py', 'PYMODULE'),
  ('converters', '/home/ccn/frag-x/converters.py', 'PYMODULE'),
  ('player', '/home/ccn/frag-x/player.py', 'PYMODULE'),
  ('game_engine_constants',
   '/home/ccn/frag-x/game_engine_constants.py',
   'PYMODULE'),
  ('network', '/home/ccn/frag-x/network.py', 'PYMODULE'),
  ('commands', '/home/ccn/frag-x/commands.py', 'PYMODULE'),
  ('queue', '/usr/lib/python3.9/queue.py', 'PYMODULE'),
  ('pygame', '/usr/lib/python3.9/site-packages/pygame/__init__.py', 'PYMODULE'),
  ('pygame.colordict',
   '/usr/lib/python3.9/site-packages/pygame/colordict.py',
   'PYMODULE'),
  ('pygame.macosx',
   '/usr/lib/python3.9/site-packages/pygame/macosx.py',
   'PYMODULE'),
  ('pygame.pkgdata',
   '/usr/lib/python3.9/site-packages/pygame/pkgdata.py',
   'PYMODULE'),
  ('pygame.sndarray',
   '/usr/lib/python3.9/site-packages/pygame/sndarray.py',
   'PYMODULE'),
  ('pygame._numpysndarray',
   '/usr/lib/python3.9/site-packages/pygame/_numpysndarray.py',
   'PYMODULE'),
  ('pygame.surfarray',
   '/usr/lib/python3.9/site-packages/pygame/surfarray.py',
   'PYMODULE'),
  ('pygame._numpysurfarray',
   '/usr/lib/python3.9/site-packages/pygame/_numpysurfarray.py',
   'PYMODULE'),
  ('pygame.sysfont',
   '/usr/lib/python3.9/site-packages/pygame/sysfont.py',
   'PYMODULE'),
  ('pygame.ftfont',
   '/usr/lib/python3.9/site-packages/pygame/ftfont.py',
   'PYMODULE'),
  ('pygame.threads',
   '/usr/lib/python3.9/site-packages/pygame/threads/__init__.py',
   'PYMODULE'),
  ('pygame.sprite',
   '/usr/lib/python3.9/site-packages/pygame/sprite.py',
   'PYMODULE'),
  ('pygame.cursors',
   '/usr/lib/python3.9/site-packages/pygame/cursors.py',
   'PYMODULE'),
  ('pygame.compat',
   '/usr/lib/python3.9/site-packages/pygame/compat.py',
   'PYMODULE'),
  ('pygame.version',
   '/usr/lib/python3.9/site-packages/pygame/version.py',
   'PYMODULE')])
